Net::SSLeay~1.69
Pod::Usage~1.67
JSON::XS~3.01
Starman~0.4014
Encode~2.73
IO::HTML~1.001
HTTP::Headers~6.05
Data::Dump~1.22
File::Path~2.09
HTTP::Daemon~6.01
Module::Build~0.4212
List::MoreUtils~0.412
Test::Deep~0.115
DBI~1.633
Devel::StackTrace~2.00
HTTP::Body~1.22
POSIX::strftime::Compiler~0.41
HTML::Strip~2.09
DBD::mysql~4.031
Path::Class~0.35
common::sense~3.73
List::Rubyish~0.03
Test::mysqld~0.17
IO::Handle~1.28
Types::Serialiser~1.0
LWP::MediaTypes~6.02
Module::Runtime~0.014
Unicode::Normalize~1.18
Cookie::Baker~0.05
HTML::Entities~3.69
Sub::Uplevel~0.25
Parallel::Prefork~0.17
DBIx::RewriteDSN~0.05
Socket~2.019
Path::Tiny~0.068
Net::HTTP~6.09
URI~1.67
Plack~1.0036
Exporter~5.70
HTTP::Parser::XS~0.17
Class::Accessor::Lite~0.08
Proc::Wait3~0.04
LWP::UserAgent~6.13
Filesys::Notify::Simple~0.12
MIME::Base64~3.15
HTML::Tagset~3.20
Devel::StackTrace::AsHTML~0.14
Exporter::Tiny~0.042
Starlet~0.24
File::ShareDir::Install~0.10
HTTP::Headers::Fast~0.17
Carp::Heavy~1.36
Net::Server~2.008
Test::NoWarnings~1.04
File::Listing~6.04
Stream::Buffered~0.03
Test::TCP~2.12
Test::Builder~1.001014
Twiggy::Prefork~0.08
Digest::SHA~5.95
Time::Local~1.2300
Test::SharedFork~0.33
Try::Tiny~0.22
Getopt::Long~2.46
parent~0.234
Term::ANSIColor~4.03
AnyEvent~7.09
Test::Exception~0.40
Exporter::Lite~0.06
Server::Starter~0.30
Test::Class~0.50
Twiggy~0.1025
HTTP::Cookies~6.01
AnyEvent::HTTP~2.22
File::Temp~0.2304
File::Copy::Recursive~0.38
Signal::Mask~0.008
Class::Inspector~1.28
WWW::RobotRules~6.02
Unicode::Stringprep~1.105
Test::Requires~0.08
Scalar::Util~1.42
Scope::Guard~0.20
IPC::Signal~1.00
Encode::Locale~1.04
HTTP::Negotiate~6.01
File::ShareDir~1.102
Digest::MD5~2.54
WWW::RobotRules::Extended~0.02
MRO::Compat~0.12
File::Slurp~9999.19
Hash::MultiValue~0.16
Apache::LogFormat::Compiler~0.32
Time::HiRes~1.9726
HTTP::Date~6.02
AnyEvent::DBI~2.3
HTML::ExtractContent~0.11
Cwd~3.47
